…
#>   minute = col_integer(),
#>   dep = col_integer(),
#>   arr = col_integer(),
#>   dep_delay = col_integer(),
#>   arr_delay = col_integer(),
#>   carrier = col_character(),
#>   flight = col_integer(),
#>   dest = col_character(),
#>   plane = col_character(),
#>   cancelled = col_integer(),
#>   time = col_integer(),
#>   dist = col_integer()
#> )
flights
#> # A tibble: 227,496 x 14
#>    date                 hour minute   dep   arr dep_delay arr_delay carrier
#>    <dttm>              <int>  <int> <int> <int>     <int>     <int> <chr>  
#>  1 2011-01-01 12:00:00    14      0  1400  1500         0       -10 AA     
#>  2 2011-01-02 12:00:00    14      1  1401  1501         1        -9 AA     
#>  3 2011-01-03 12:00:00    13     52  1352  1502        -8        -8 AA     
#>  4 2011-01-04 12:00:00    14      3  1403  1513         3         3 AA     
#>  5 2011-01-05 12:00:00    14      5  1405  1507         5        -3 AA     
#>  6 2011-01-06 12:00:00    13     59  1359  1503        -1        -7 AA     
#>  7 2011-01-07 12:00:00    13     59  1359  1509        -1        -1 AA     
#>  8 2011-01-08 12:00:00    13     55  1355  1454        -5       -16 AA     
#>  9 2011-01-09 12:00:00    14     43  1443  1554        43        44 AA     
#> 10 2011-01-10 12:00:00    14     43  1443  1553        43        43 AA     
#> # ... with 227,486 more rows, and 6 more variables: flight <int>,
#> #   dest <chr>, plane <chr>, cancelled <int>, time <int>, dist <int>
…
#>   temp = col_double(),
#>   dew_point = col_double(),
#>   humidity = col_integer(),
#>   pressure = col_double(),
#>   visibility = col_double(),
#>   wind_dir = col_character(),
#>   wind_dir2 = col_integer(),
#>   wind_speed = col_double(),
#>   gust_speed = col_double(),
#>   precip = col_double(),
#>   conditions = col_character(),
#>   events = col_character()
#> )
weather 
#> # A tibble: 8,723 x 14
#>    date        hour  temp dew_point humidity pressure visibility wind_dir
#>    <date>     <int> <dbl>     <dbl>    <int>    <dbl>      <dbl> <chr>   
#>  1 2011-01-01     0  59        28.9       32     29.9         10 NNE     
#>  2 2011-01-01     1  57.2      28.4       33     29.9         10 NNE     
#>  3 2011-01-01     2  55.4      28.4       36     29.9         10 NNW     
#>  4 2011-01-01     3  53.6      28.4       38     29.9         10 North   
#>  5 2011-01-01     4  NA        NA         NA     30.0         10 NNW     
#>  6 2011-01-01     5  NA        NA         NA     30.0         10 North   
#>  7 2011-01-01     6  53.1      17.1       24     30.0         10 North   
#>  8 2011-01-01     7  53.1      16         23     30.1         10 North   
#>  9 2011-01-01     8  54        18         24     30.1         10 North   
#> 10 2011-01-01     9  55.4      17.6       23     30.1         10 NNE     
#> # ... with 8,713 more rows, and 6 more variables: wind_dir2 <int>,
#> #   wind_speed <dbl>, gust_speed <dbl>, precip <dbl>, conditions <chr>,
#> #   events <chr>
planes <- read_csv("data/planes.csv")
#> Parsed with column specification:
#> cols(
#>   plane = col_character(),
#>   year = col_integer(),
#>   mfr = col_character(),
#>   model = col_character(),
#>   no.eng = col_integer(),
#>   no.seats = col_integer(),
#>   speed = col_integer(),
#>   engine = col_character(),
#>   type = col_character()
#> )
planes
#> # A tibble: 2,853 x 9
#>    plane   year mfr       model   no.eng no.seats speed engine  type      
#>    <chr>  <int> <chr>     <chr>    <int>    <int> <int> <chr>   <chr>     
#>  1 N576AA  1991 MCDONNEL… DC-9-8…      2      172    NA Turbo-… Fixed win…
#>  2 N557AA  1993 MARZ BAR… KITFOX…      1        2    NA Recipr… Fixed win…
#>  3 N403AA  1974 RAVEN     S55A        NA        1    60 None    Balloon   
#>  4 N492AA  1989 MCDONNEL… DC-9-8…      2      172    NA Turbo-… Fixed win…
#>  5 N262AA  1985 MCDONNEL… DC-9-8…      2      172    NA Turbo-… Fixed win…
#>  6 N493AA  1989 MCDONNEL… DC-9-8…      2      172    NA Turbo-… Fixed win…
#>  7 N477AA  1988 MCDONNEL… DC-9-8…      2      172    NA Turbo-… Fixed win…
#>  8 N476AA  1988 MCDONNEL… DC-9-8…      2      172    NA Turbo-… Fixed win…
#>  9 N504AA    NA AUTHIER … TIERRA…      1        2    NA Recipr… Fixed win…
#> 10 N565AA  1987 MCDONNEL… DC-9-8…      2      172    NA Turbo-… Fixed win…
#> # ... with 2,843 more rows

airports <- read_csv("data/airports.csv")
#> Parsed with column specification:
#> cols(
#>   iata = col_character(),
#>   airport = col_character(),
#>   city = col_character(),
#>   state = col_character(),
#>   country = col_character(),
#>   lat = col_double(),
#>   long = col_double()
#> )
airports
#> # A tibble: 3,376 x 7
#>    iata  airport              city             state country   lat   long
#>    <chr> <chr>                <chr>            <chr> <chr>   <dbl>  <dbl>
#>  1 00M   Thigpen              Bay Springs      MS    USA      32.0  -89.2
#>  2 00R   Livingston Municipal Livingston       TX    USA      30.7  -95.0
#>  3 00V   Meadow Lake          Colorado Springs CO    USA      38.9 -105. 
#>  4 01G   Perry-Warsaw         Perry            NY    USA      42.7  -78.1
#>  5 01J   Hilliard Airpark     Hilliard         FL    USA      30.7  -81.9
#>  6 01M   Tishomingo County    Belmont          MS    USA      34.5  -88.2
#>  7 02A   Gragg-Wade           Clanton          AL    USA      32.9  -86.6
#>  8 02C   Capitol              Brookfield       WI    USA      43.1  -88.2
#>  9 02G   Columbiana County    East Liverpool   OH    USA      40.7  -80.6
#> 10 03D   Memphis Memorial     Memphis          MO    USA      40.4  -92.2
#> # ... with 3,366 more rows
```
…
Veamos un ejemplo:


```r
planes <- flights %>%
  filter(!is.na(arr_delay)) %>%
  group_by(plane) %>%
  filter(n() > 30)

planes %>%
  mutate(z_delay =
    (arr_delay - mean(arr_delay)) / sd(arr_delay)) %>%
  filter(z_delay > 5)
#> # A tibble: 1,403 x 16
#> # Groups:   plane [856]
#>    date                 hour minute   dep   arr dep_delay arr_delay carrier
#>    <dttm>              <int>  <int> <int> <int>     <int>     <int> <chr>  
#>  1 2011-01-28 12:00:00    15     16  1516  1916       351       326 CO     
#>  2 2011-01-27 12:00:00    18     22  1822  1945       234       210 CO     
#>  3 2011-01-27 12:00:00    21     37  2137  2254       242       219 CO     
#>  4 2011-01-27 12:00:00     0     11    11   216       168       137 CO     
#>  5 2011-01-27 12:00:00    22     37  2237   153       227       208 CO     
#>  6 2011-01-27 12:00:00    21     28  2128   136       231       216 CO     
#>  7 2011-01-26 12:00:00    11     46  1146  1633       171       193 CO     
#>  8 2011-01-26 12:00:00     9     49   949  1436       144       180 CO     
#>  9 2011-01-21 12:00:00    19     11  1911  2352        94       112 CO     
#> 10 2011-01-20 12:00:00     6     35   635   807       780       775 CO     
#> # ... with 1,393 more rows, and 8 more variables: flight <int>,
#> #   dest <chr>, plane <chr>, cancelled <int>, time <int>, dist <int>,
#> #   date_only <date>, z_delay <dbl>
```
…
```r
location <- airports %>%
  select(dest = iata, name = airport, lat, long)

flights %>%
    group_by(dest) %>%
    filter(!is.na(arr_delay)) %>%
    summarise(
        arr_delay = mean(arr_delay),
        n = n() ) %>%
        arrange(desc(arr_delay)) %>%
        left_join(location)
#> Joining, by = "dest"
#> # A tibble: 116 x 6
#>    dest  arr_delay     n name                                  lat   long
#>    <chr>     <dbl> <int> <chr>                               <dbl>  <dbl>
#>  1 ANC        26.1   124 Ted Stevens Anchorage International  61.2 -150. 
#>  2 CID        17.8   406 Eastern Iowa                         41.9  -91.7
#>  3 DSM        16.0   634 Des Moines International             41.5  -93.7
#>  4 SFO        14.9  2800 San Francisco International          37.6 -122. 
#>  5 BPT        14.3     3 Southeast Texas Regional             30.0  -94.0
#>  6 GRR        13.7   665 Kent County International            42.9  -85.5
#>  7 DAY        13.7   444 James M Cox Dayton Intl              39.9  -84.2
#>  8 VPS        12.5   864 Eglin Air Force Base                 30.5  -86.5
#>  9 ECP        12.4   720 <NA>                                 NA     NA  
#> 10 SAV        12.3   851 Savannah International               32.1  -81.2
#> # ... with 106 more rows
```
…
```r
hourly_delay <- flights %>%
  group_by(date_only, hour) %>%
  filter(!is.na(dep_delay)) %>%
  summarise(
    delay = mean(dep_delay),
    n = n() ) %>%
  filter(n > 10)

delay_weather <- hourly_delay %>% left_join(weather)
#> Joining, by = "hour"

arrange(delay_weather, -delay)
#> # A tibble: 2,091,842 x 17
#> # Groups:   date_only [365]
#>    date_only   hour delay     n date        temp dew_point humidity
#>    <date>     <int> <dbl> <int> <date>     <dbl>     <dbl>    <int>
#>  1 2011-05-12    23  184.    33 2011-01-02  43        28.9       58
#>  2 2011-05-12    23  184.    33 2011-01-03  39        27         62
#>  3 2011-05-12    23  184.    33 2011-01-04  50        45         83
#>  4 2011-05-12    23  184.    33 2011-01-05  62.6      60.8       94
#>  5 2011-05-12    23  184.    33 2011-01-06  53.1      36         52
#>  6 2011-05-12    23  184.    33 2011-01-07  46.9      36         66
#>  7 2011-05-12    23  184.    33 2011-01-08  50        43         77
#>  8 2011-05-12    23  184.    33 2011-01-09  53.1      30         41
#>  9 2011-05-12    23  184.    33 2011-01-10  41        37         86
#> 10 2011-05-12    23  184.    33 2011-01-11  39.9      32         73
#> # ... with 2,091,832 more rows, and 9 more variables: pressure <dbl>,
#> #   visibility <dbl>, wind_dir <chr>, wind_dir2 <int>, wind_speed <dbl>,
#> #   gust_speed <dbl>, precip <dbl>, conditions <chr>, events <chr>
```
…
* data: base de datos que vamos a reestructurar.  
* key: nombre de la nueva variable que contiene lo que fueron los nombres
de columnas que apilamos.  
* value: nombre de la variable que almacenará los valores que corresponden a 
cada *key*.  
* ...: lo último que especificamos son las columnas que vamos a apilar, la notación para seleccionarlas es la misma que usamos con `select()`.



```r
pew_tidy <- gather(data = pew, income, frequency, -religion)
pew_tidy
#> # A tibble: 180 x 3
#>    religion                income frequency
#>    <chr>                   <chr>      <int>
#>  1 Agnostic                <$10k         27
#>  2 Atheist                 <$10k         12
#>  3 Buddhist                <$10k         27
#>  4 Catholic                <$10k        418
#>  5 Don’t know/refused      <$10k         15
#>  6 Evangelical Prot        <$10k        575
#>  7 Hindu                   <$10k          1
#>  8 Historically Black Prot <$10k        228
#>  9 Jehovah's Witness       <$10k         20
#> 10 Jewish                  <$10k         19
#> # ... with 170 more rows
```
…
#>   wk66 = col_character(),
#>   wk67 = col_character(),
#>   wk68 = col_character(),
#>   wk69 = col_character(),
#>   wk70 = col_character(),
#>   wk71 = col_character(),
#>   wk72 = col_character(),
#>   wk73 = col_character(),
#>   wk74 = col_character(),
#>   wk75 = col_character(),
#>   wk76 = col_character()
#> )
#> See spec(...) for full column specifications.
billboard
#> # A tibble: 317 x 81
#>     year artist track time  date.entered   wk1   wk2   wk3   wk4   wk5
#>    <int> <chr>  <chr> <tim> <date>       <int> <int> <int> <int> <int>
#>  1  2000 2 Pac  Baby… 04:22 2000-02-26      87    82    72    77    87
#>  2  2000 2Ge+h… The … 03:15 2000-09-02      91    87    92    NA    NA
#>  3  2000 3 Doo… Kryp… 03:53 2000-04-08      81    70    68    67    66
#>  4  2000 3 Doo… Loser 04:24 2000-10-21      76    76    72    69    67
#>  5  2000 504 B… Wobb… 03:35 2000-04-15      57    34    25    17    17
#>  6  2000 98^0   Give… 03:24 2000-08-19      51    39    34    26    26
#>  7  2000 A*Tee… Danc… 03:44 2000-07-08      97    97    96    95   100
#>  8  2000 Aaliy… I Do… 04:15 2000-01-29      84    62    51    41    38
#>  9  2000 Aaliy… Try … 04:03 2000-03-18      59    53    38    28    21
#> 10  2000 Adams… Open… 05:30 2000-08-26      76    76    74    69    68
#> # ... with 307 more rows, and 71 more variables: wk6 <int>, wk7 <int>,
#> #   wk8 <int>, wk9 <int>, wk10 <int>, wk11 <int>, wk12 <int>, wk13 <int>,
#> #   wk14 <int>, wk15 <int>, wk16 <int>, wk17 <int>, wk18 <int>,
#> #   wk19 <int>, wk20 <int>, wk21 <int>, wk22 <int>, wk23 <int>,
#> #   wk24 <int>, wk25 <int>, wk26 <int>, wk27 <int>, wk28 <int>,
#> #   wk29 <int>, wk30 <int>, wk31 <int>, wk32 <int>, wk33 <int>,
#> #   wk34 <int>, wk35 <int>, wk36 <int>, wk37 <int>, wk38 <int>,
#> #   wk39 <int>, wk40 <int>, wk41 <int>, wk42 <int>, wk43 <int>,
#> #   wk44 <int>, wk45 <int>, wk46 <int>, wk47 <int>, wk48 <int>,
…
Notemos que el rank en cada semana (una vez que entró a la lista) está guardado
en 75 columnas `wk1` a `wk75`, este tipo de almacenamiento no es *limpio* pero 
puede ser útil al momento de ingresar la información.

Para tener datos *limpios* apilamos las semanas de manera que sea una sola 
columna (nuevamente alargamos los datos):


```r
billboard_long <- gather(billboard, week, rank, wk1:wk76, na.rm = TRUE)
billboard_long
#> # A tibble: 5,307 x 7
#>     year artist        track                time  date.entered week  rank 
#>  * <int> <chr>         <chr>                <tim> <date>       <chr> <chr>
#>  1  2000 2 Pac         Baby Don't Cry (Kee… 04:22 2000-02-26   wk1   87   
#>  2  2000 2Ge+her       The Hardest Part Of… 03:15 2000-09-02   wk1   91   
#>  3  2000 3 Doors Down  Kryptonite           03:53 2000-04-08   wk1   81   
#>  4  2000 3 Doors Down  Loser                04:24 2000-10-21   wk1   76   
#>  5  2000 504 Boyz      Wobble Wobble        03:35 2000-04-15   wk1   57   
#>  6  2000 98^0          Give Me Just One Ni… 03:24 2000-08-19   wk1   51   
#>  7  2000 A*Teens       Dancing Queen        03:44 2000-07-08   wk1   97   
#>  8  2000 Aaliyah       I Don't Wanna        04:15 2000-01-29   wk1   84   
#>  9  2000 Aaliyah       Try Again            04:03 2000-03-18   wk1   59   
#> 10  2000 Adams, Yolan… Open My Heart        05:30 2000-08-26   wk1   76   
#> # ... with 5,297 more rows
```
…
```r
billboard_tidy <- billboard_long %>%
  mutate(
    week = parse_number(week),
    date = date.entered + 7 * (week - 1), 
    rank = as.numeric(rank)
    ) %>%
    select(-date.entered)
billboard_tidy
#> # A tibble: 5,307 x 7
#>     year artist         track                 time   week  rank date      
#>    <int> <chr>          <chr>                 <tim> <dbl> <dbl> <date>    
#>  1  2000 2 Pac          Baby Don't Cry (Keep… 04:22     1    87 2000-02-26
#>  2  2000 2Ge+her        The Hardest Part Of … 03:15     1    91 2000-09-02
#>  3  2000 3 Doors Down   Kryptonite            03:53     1    81 2000-04-08
#>  4  2000 3 Doors Down   Loser                 04:24     1    76 2000-10-21
#>  5  2000 504 Boyz       Wobble Wobble         03:35     1    57 2000-04-15
#>  6  2000 98^0           Give Me Just One Nig… 03:24     1    51 2000-08-19
#>  7  2000 A*Teens        Dancing Queen         03:44     1    97 2000-07-08
#>  8  2000 Aaliyah        I Don't Wanna         04:15     1    84 2000-01-29
#>  9  2000 Aaliyah        Try Again             04:03     1    59 2000-03-18
#> 10  2000 Adams, Yolanda Open My Heart         05:30     1    76 2000-08-26
#> # ... with 5,297 more rows
```
…
<img src="02-manipulacion_files/figure-html/unnamed-chunk-38-1.png" width="739.2" style="display: block; margin: auto;" />

### Una columna asociada a más de una variable {-}
La siguiente base de datos proviene de la Organización Mundial de la Salud y 
contiene el número de casos confirmados de tuberculosis por país y año, la
información esta por grupo demográfico de acuerdo a sexo (m, f), y edad (0-4, 
5-14, etc). Los datos están disponibles en http://www.who.int/tb/country/data/download/en/. 



```r
tb <- read.csv("data/tb.csv") %>% tbl_df()
tb
#> # A tibble: 5,769 x 22
#>    iso2   year new_sp_m04 new_sp_m514 new_sp_m014 new_sp_m1524 new_sp_m2534
#>  * <fct> <int>      <int>       <int>       <int>        <int>        <int>
#>  1 AD     1989         NA          NA          NA           NA           NA
#>  2 AD     1990         NA          NA          NA           NA           NA
#>  3 AD     1991         NA          NA          NA           NA           NA
#>  4 AD     1992         NA          NA          NA           NA           NA
#>  5 AD     1993         NA          NA          NA           NA           NA
#>  6 AD     1994         NA          NA          NA           NA           NA
#>  7 AD     1996         NA          NA           0            0            0
#>  8 AD     1997         NA          NA           0            0            1
#>  9 AD     1998         NA          NA           0            0            0
#> 10 AD     1999         NA          NA           0            0            0
#> # ... with 5,759 more rows, and 15 more variables: new_sp_m3544 <int>,
#> #   new_sp_m4554 <int>, new_sp_m5564 <int>, new_sp_m65 <int>,
#> #   new_sp_mu <int>, new_sp_f04 <int>, new_sp_f514 <int>,
#> #   new_sp_f014 <int>, new_sp_f1524 <int>, new_sp_f2534 <int>,
#> #   new_sp_f3544 <int>, new_sp_f4554 <int>, new_sp_f5564 <int>,
#> #   new_sp_f65 <int>, new_sp_fu <int>
```
…
* el nombre de la base de datos,  

* el nombre de la variable que deseamos separar en más de una,  

* la posición de donde deseamos "cortar" (hay más opciones para especificar 
como separar, ver `?separate`). El default es separar valores en todos los 
lugares que encuentre un caracter que no es alfanumérico (espacio, guión,...).


```r
tb_tidy <- separate(tb_long, demo, c("sex", "age"), 8)
tb_tidy
#> # A tibble: 35,750 x 5
#>    iso2   year sex      age       n
#>  * <fct> <int> <chr>    <chr> <int>
#>  1 AD     2005 new_sp_m 04        0
#>  2 AD     2006 new_sp_m 04        0
#>  3 AD     2008 new_sp_m 04        0
#>  4 AE     2006 new_sp_m 04        0
#>  5 AE     2007 new_sp_m 04        0
#>  6 AE     2008 new_sp_m 04        0
#>  7 AG     2007 new_sp_m 04        0
#>  8 AL     2005 new_sp_m 04        0
#>  9 AL     2006 new_sp_m 04        1
#> 10 AL     2007 new_sp_m 04        0
#> # ... with 35,740 more rows
…
Estos datos tienen variables en columnas individuales (id, año, mes), en 
múltiples columnas (día, d1-d31) y en filas (tmin, tmax). Comencemos por apilar 
las columnas.


```r
clima_long <- gather(clima, day, value, d1:d31, na.rm = TRUE)
clima_long
#> # A tibble: 66 x 6
#>    id           year month element day   value
#>  * <chr>       <int> <int> <chr>   <chr> <chr>
#>  1 MX000017004  2010    12 TMAX    d1    299  
#>  2 MX000017004  2010    12 TMIN    d1    138  
#>  3 MX000017004  2010     2 TMAX    d2    273  
#>  4 MX000017004  2010     2 TMIN    d2    144  
#>  5 MX000017004  2010    11 TMAX    d2    313  
#>  6 MX000017004  2010    11 TMIN    d2    163  
#>  7 MX000017004  2010     2 TMAX    d3    241  
#>  8 MX000017004  2010     2 TMIN    d3    144  
#>  9 MX000017004  2010     7 TMAX    d3    286  
#> 10 MX000017004  2010     7 TMIN    d3    175  
#> # ... with 56 more rows
```
…
