…
    x <- rep(NA, n)
    u <- rep(NA, n)
    x[1] <- semilla
    u[1] <- x[1] / (2 ^ 31 - 1) # transformamos al (0, 1)
    for(i in 2:n){
        x[i] <- (7 ^ 5 * x[i - 1]) %% (2 ^ 31 - 1)
        u[i] <- x[i] / (2 ^ 31 - 1)
    }
    u
}
u_rand <- sucesion(n = 150000)
sucesiones <- map_df(1:12, ~data_frame(serie = ., sim = sucesion(), 
    ind = 1:length(sim)))
sucesiones
#> # A tibble: 18,000 x 3
#>    serie   sim   ind
#>    <int> <dbl> <int>
#>  1     1 0.845     1
#>  2     1 0.826     2
#>  3     1 0.667     3
#>  4     1 0.740     4
#>  5     1 0.774     5
#>  6     1 0.526     6
#>  7     1 0.701     7
#>  8     1 0.885     8
#>  9     1 0.163     9
#> 10     1 0.411    10
#> # ... with 17,990 more rows
```
…
