Estadística Computacional
…
data: base de datos que vamos a reestructurar.

key: nombre de la nueva variable que contiene lo que fueron los nombres
de columnas que apilamos.

value: nombre de la variable que almacenará los valores que corresponden a
cada key.

…: lo último que especificamos son las columnas que vamos a apilar, la notación para seleccionarlas es la misma que usamos con select().

pew_tidy <- gather(data = pew, income, frequency, -religion)
pew_tidy
#> # A tibble: 180 x 3
#>    religion                income frequency
#>    <chr>                   <chr>      <int>
#>  1 Agnostic                <$10k         27
#>  2 Atheist                 <$10k         12
#>  3 Buddhist                <$10k         27
#>  4 Catholic                <$10k        418
#>  5 Don’t know/refused      <$10k         15
#>  6 Evangelical Prot        <$10k        575
#>  7 Hindu                   <$10k          1
#>  8 Historically Black Prot <$10k        228
#>  9 Jehovah's Witness       <$10k         20
#> 10 Jewish                  <$10k         19
#> # ... with 170 more rows
…
#>   wk66 = col_character(),
#>   wk67 = col_character(),
#>   wk68 = col_character(),
#>   wk69 = col_character(),
#>   wk70 = col_character(),
#>   wk71 = col_character(),
#>   wk72 = col_character(),
#>   wk73 = col_character(),
#>   wk74 = col_character(),
#>   wk75 = col_character(),
#>   wk76 = col_character()
#> )
#> See spec(...) for full column specifications.
billboard
#> # A tibble: 317 x 81
#>     year artist track time  date.entered   wk1   wk2   wk3   wk4   wk5
#>    <int> <chr>  <chr> <tim> <date>       <int> <int> <int> <int> <int>
#>  1  2000 2 Pac  Baby… 04:22 2000-02-26      87    82    72    77    87
#>  2  2000 2Ge+h… The … 03:15 2000-09-02      91    87    92    NA    NA
#>  3  2000 3 Doo… Kryp… 03:53 2000-04-08      81    70    68    67    66
#>  4  2000 3 Doo… Loser 04:24 2000-10-21      76    76    72    69    67
#>  5  2000 504 B… Wobb… 03:35 2000-04-15      57    34    25    17    17
#>  6  2000 98^0   Give… 03:24 2000-08-19      51    39    34    26    26
#>  7  2000 A*Tee… Danc… 03:44 2000-07-08      97    97    96    95   100
#>  8  2000 Aaliy… I Do… 04:15 2000-01-29      84    62    51    41    38
#>  9  2000 Aaliy… Try … 04:03 2000-03-18      59    53    38    28    21
#> 10  2000 Adams… Open… 05:30 2000-08-26      76    76    74    69    68
#> # ... with 307 more rows, and 71 more variables: wk6 <int>, wk7 <int>,
#> #   wk8 <int>, wk9 <int>, wk10 <int>, wk11 <int>, wk12 <int>, wk13 <int>,
#> #   wk14 <int>, wk15 <int>, wk16 <int>, wk17 <int>, wk18 <int>,
#> #   wk19 <int>, wk20 <int>, wk21 <int>, wk22 <int>, wk23 <int>,
#> #   wk24 <int>, wk25 <int>, wk26 <int>, wk27 <int>, wk28 <int>,
#> #   wk29 <int>, wk30 <int>, wk31 <int>, wk32 <int>, wk33 <int>,
#> #   wk34 <int>, wk35 <int>, wk36 <int>, wk37 <int>, wk38 <int>,
#> #   wk39 <int>, wk40 <int>, wk41 <int>, wk42 <int>, wk43 <int>,
#> #   wk44 <int>, wk45 <int>, wk46 <int>, wk47 <int>, wk48 <int>,
…
Notemos que el rank en cada semana (una vez que entró a la lista) está guardado
en 75 columnas wk1 a wk75, este tipo de almacenamiento no es limpio pero
puede ser útil al momento de ingresar la información.

Para tener datos limpios apilamos las semanas de manera que sea una sola
columna (nuevamente alargamos los datos):

billboard_long <- gather(billboard, week, rank, wk1:wk76, na.rm = TRUE)
billboard_long
#> # A tibble: 5,307 x 7
#>     year artist        track                time  date.entered week  rank 
#>  * <int> <chr>         <chr>                <tim> <date>       <chr> <chr>
#>  1  2000 2 Pac         Baby Don't Cry (Kee… 04:22 2000-02-26   wk1   87   
#>  2  2000 2Ge+her       The Hardest Part Of… 03:15 2000-09-02   wk1   91   
#>  3  2000 3 Doors Down  Kryptonite           03:53 2000-04-08   wk1   81   
#>  4  2000 3 Doors Down  Loser                04:24 2000-10-21   wk1   76   
#>  5  2000 504 Boyz      Wobble Wobble        03:35 2000-04-15   wk1   57   
#>  6  2000 98^0          Give Me Just One Ni… 03:24 2000-08-19   wk1   51   
#>  7  2000 A*Teens       Dancing Queen        03:44 2000-07-08   wk1   97   
#>  8  2000 Aaliyah       I Don't Wanna        04:15 2000-01-29   wk1   84   
#>  9  2000 Aaliyah       Try Again            04:03 2000-03-18   wk1   59   
#> 10  2000 Adams, Yolan… Open My Heart        05:30 2000-08-26   wk1   76   
#> # ... with 5,297 more rows
…
billboard_tidy <- billboard_long %>%
  mutate(
    week = parse_number(week),
    date = date.entered + 7 * (week - 1), 
    rank = as.numeric(rank)
    ) %>%
    select(-date.entered)
billboard_tidy
#> # A tibble: 5,307 x 7
#>     year artist         track                 time   week  rank date      
#>    <int> <chr>          <chr>                 <tim> <dbl> <dbl> <date>    
#>  1  2000 2 Pac          Baby Don't Cry (Keep… 04:22     1    87 2000-02-26
#>  2  2000 2Ge+her        The Hardest Part Of … 03:15     1    91 2000-09-02
#>  3  2000 3 Doors Down   Kryptonite            03:53     1    81 2000-04-08
#>  4  2000 3 Doors Down   Loser                 04:24     1    76 2000-10-21
#>  5  2000 504 Boyz       Wobble Wobble         03:35     1    57 2000-04-15
#>  6  2000 98^0           Give Me Just One Nig… 03:24     1    51 2000-08-19
#>  7  2000 A*Teens        Dancing Queen         03:44     1    97 2000-07-08
#>  8  2000 Aaliyah        I Don't Wanna         04:15     1    84 2000-01-29
#>  9  2000 Aaliyah        Try Again             04:03     1    59 2000-03-18
#> 10  2000 Adams, Yolanda Open My Heart         05:30     1    76 2000-08-26
#> # ... with 5,297 more rows
…
Una columna asociada a más de una variable

La siguiente base de datos proviene de la Organización Mundial de la Salud y
contiene el número de casos confirmados de tuberculosis por país y año, la
información esta por grupo demográfico de acuerdo a sexo (m, f), y edad (0-4,
5-14, etc). Los datos están disponibles en http://www.who.int/tb/country/data/download/en/.

tb <- read.csv("data/tb.csv") %>% tbl_df()
tb
#> # A tibble: 5,769 x 22
#>    iso2   year new_sp_m04 new_sp_m514 new_sp_m014 new_sp_m1524 new_sp_m2534
#>  * <fct> <int>      <int>       <int>       <int>        <int>        <int>
#>  1 AD     1989         NA          NA          NA           NA           NA
#>  2 AD     1990         NA          NA          NA           NA           NA
#>  3 AD     1991         NA          NA          NA           NA           NA
#>  4 AD     1992         NA          NA          NA           NA           NA
#>  5 AD     1993         NA          NA          NA           NA           NA
#>  6 AD     1994         NA          NA          NA           NA           NA
#>  7 AD     1996         NA          NA           0            0            0
#>  8 AD     1997         NA          NA           0            0            1
#>  9 AD     1998         NA          NA           0            0            0
#> 10 AD     1999         NA          NA           0            0            0
#> # ... with 5,759 more rows, and 15 more variables: new_sp_m3544 <int>,
#> #   new_sp_m4554 <int>, new_sp_m5564 <int>, new_sp_m65 <int>,
#> #   new_sp_mu <int>, new_sp_f04 <int>, new_sp_f514 <int>,
#> #   new_sp_f014 <int>, new_sp_f1524 <int>, new_sp_f2534 <int>,
#> #   new_sp_f3544 <int>, new_sp_f4554 <int>, new_sp_f5564 <int>,
#> #   new_sp_f65 <int>, new_sp_fu <int>
…
Ahora separaremos las variables sexo y edad de la columna demo, para ello
debemos pasar a la función separate(), esta recibe como parámetros:

el nombre de la base de datos,

el nombre de la variable que deseamos separar en más de una,

la posición de donde deseamos “cortar” (hay más opciones para especificar
como separar, ver ?separate). El default es separar valores en todos los
lugares que encuentre un caracter que no es alfanumérico (espacio, guión,…).

tb_tidy <- separate(tb_long, demo, c("sex", "age"), 8)
tb_tidy
#> # A tibble: 35,750 x 5
#>    iso2   year sex      age       n
#>  * <fct> <int> <chr>    <chr> <int>
#>  1 AD     2005 new_sp_m 04        0
#>  2 AD     2006 new_sp_m 04        0
#>  3 AD     2008 new_sp_m 04        0
#>  4 AE     2006 new_sp_m 04        0
#>  5 AE     2007 new_sp_m 04        0
#>  6 AE     2008 new_sp_m 04        0
#>  7 AG     2007 new_sp_m 04        0
#>  8 AL     2005 new_sp_m 04        0
#>  9 AL     2006 new_sp_m 04        1
#> 10 AL     2007 new_sp_m 04        0
#> # ... with 35,740 more rows
…
Estos datos tienen variables en columnas individuales (id, año, mes), en
múltiples columnas (día, d1-d31) y en filas (tmin, tmax). Comencemos por apilar
las columnas.

clima_long <- gather(clima, day, value, d1:d31, na.rm = TRUE)
clima_long
#> # A tibble: 66 x 6
#>    id           year month element day   value
#>  * <chr>       <int> <int> <chr>   <chr> <chr>
#>  1 MX000017004  2010    12 TMAX    d1    299  
#>  2 MX000017004  2010    12 TMIN    d1    138  
#>  3 MX000017004  2010     2 TMAX    d2    273  
#>  4 MX000017004  2010     2 TMIN    d2    144  
#>  5 MX000017004  2010    11 TMAX    d2    313  
#>  6 MX000017004  2010    11 TMIN    d2    163  
#>  7 MX000017004  2010     2 TMAX    d3    241  
#>  8 MX000017004  2010     2 TMIN    d3    144  
#>  9 MX000017004  2010     7 TMAX    d3    286  
#> 10 MX000017004  2010     7 TMIN    d3    175  
#> # ... with 56 more rows

Podemos crear algunas variables adicionales.

clima_vars <- clima_long %>% 
  mutate(day = parse_number(day), 
    value = as.numeric(value) / 10) %>%
  select(id, year, month, day, element, value) %>%
  arrange(id, year, month, day)
clima_vars
#> # A tibble: 66 x 6
#>    id           year month   day element value
#>    <chr>       <int> <int> <dbl> <chr>   <dbl>
#>  1 MX000017004  2010     1    30 TMAX     27.8
#>  2 MX000017004  2010     1    30 TMIN     14.5
#>  3 MX000017004  2010     2     2 TMAX     27.3
#>  4 MX000017004  2010     2     2 TMIN     14.4
#>  5 MX000017004  2010     2     3 TMAX     24.1
#>  6 MX000017004  2010     2     3 TMIN     14.4
#>  7 MX000017004  2010     2    11 TMAX     29.7
#>  8 MX000017004  2010     2    11 TMIN     13.4
#>  9 MX000017004  2010     2    23 TMAX     29.9
#> 10 MX000017004  2010     2    23 TMIN     10.7
#> # ... with 56 more rows

Finalmente, la columna element no es una variable, sino que almacena el nombre
de dos variables, la operación que debemos aplicar (spread) es el inverso de
apilar (gather):

clima_tidy <- spread(clima_vars, element, value)
clima_tidy
#> # A tibble: 33 x 6
#>    id           year month   day  TMAX  TMIN
#>    <chr>       <int> <int> <dbl> <dbl> <dbl>
#>  1 MX000017004  2010     1    30  27.8  14.5
#>  2 MX000017004  2010     2     2  27.3  14.4
#>  3 MX000017004  2010     2     3  24.1  14.4
#>  4 MX000017004  2010     2    11  29.7  13.4
#>  5 MX000017004  2010     2    23  29.9  10.7
#>  6 MX000017004  2010     3     5  32.1  14.2
#>  7 MX000017004  2010     3    10  34.5  16.8
#>  8 MX000017004  2010     3    16  31.1  17.6
#>  9 MX000017004  2010     4    27  36.3  16.7
#> 10 MX000017004  2010     5    27  33.2  18.2
#> # ... with 23 more rows
…
Mas de un tipo de observación en una misma tabla

En ocasiones las bases de datos involucran valores en diferentes niveles, en
diferentes tipos de unidad observacional. En la limpieza de datos, cada unidad
observacional debe estar almacenada en su propia tabla (esto esta ligado a
normalización de una base de datos), es importante para evitar inconsistencias
en los datos.

¿Cuáles son las unidades observacionales de los datos de billboard?

billboard_tidy
#> # A tibble: 5,307 x 7
#>     year artist         track                 time   week  rank date      
#>    <int> <chr>          <chr>                 <tim> <dbl> <dbl> <date>    
#>  1  2000 2 Pac          Baby Don't Cry (Keep… 04:22     1    87 2000-02-26
#>  2  2000 2Ge+her        The Hardest Part Of … 03:15     1    91 2000-09-02
#>  3  2000 3 Doors Down   Kryptonite            03:53     1    81 2000-04-08
#>  4  2000 3 Doors Down   Loser                 04:24     1    76 2000-10-21
#>  5  2000 504 Boyz       Wobble Wobble         03:35     1    57 2000-04-15
#>  6  2000 98^0           Give Me Just One Nig… 03:24     1    51 2000-08-19
#>  7  2000 A*Teens        Dancing Queen         03:44     1    97 2000-07-08
#>  8  2000 Aaliyah        I Don't Wanna         04:15     1    84 2000-01-29
#>  9  2000 Aaliyah        Try Again             04:03     1    59 2000-03-18
#> 10  2000 Adams, Yolanda Open My Heart         05:30     1    76 2000-08-26
#> # ... with 5,297 more rows

Separemos esta base de datos en dos: la tabla canción que almacena artista,
nombre de la canción y duración; la tabla rank que almacena el ranking de la
canción en cada semana.

song <- billboard_tidy %>% 
  select(artist, track, year, time) %>%
  unique() %>%
  arrange(artist) %>%
  mutate(song_id = row_number(artist))
song
#> # A tibble: 317 x 5
#>    artist         track                    year time   song_id
#>    <chr>          <chr>                   <int> <time>   <int>
#>  1 2 Pac          Baby Don't Cry (Keep...  2000 04:22        1
#>  2 2Ge+her        The Hardest Part Of ...  2000 03:15        2
#>  3 3 Doors Down   Kryptonite               2000 03:53        3
#>  4 3 Doors Down   Loser                    2000 04:24        4
#>  5 504 Boyz       Wobble Wobble            2000 03:35        5
#>  6 98^0           Give Me Just One Nig...  2000 03:24        6
#>  7 A*Teens        Dancing Queen            2000 03:44        7
#>  8 Aaliyah        I Don't Wanna            2000 04:15        8
#>  9 Aaliyah        Try Again                2000 04:03        9
#> 10 Adams, Yolanda Open My Heart            2000 05:30       10
#> # ... with 307 more rows

rank <- billboard_tidy %>%
  left_join(song, c("artist", "track", "year", "time")) %>%
  select(song_id, date, week, rank) %>%
  arrange(song_id, date) %>%
  tbl_df
rank
#> # A tibble: 5,307 x 4
#>    song_id date        week  rank
#>      <int> <date>     <dbl> <dbl>
#>  1       1 2000-02-26     1    87
#>  2       1 2000-03-04     2    82
#>  3       1 2000-03-11     3    72
#>  4       1 2000-03-18     4    77
#>  5       1 2000-03-25     5    87
#>  6       1 2000-04-01     6    94
#>  7       1 2000-04-08     7    99
#>  8       2 2000-09-02     1    91
#>  9       2 2000-09-09     2    87
#> 10       2 2000-09-16     3    92
#> # ... with 5,297 more rows
…
paths <- set_names(paths, basename(paths))

La función map_df itera sobre cada dirección, lee el csv en dicha dirección y
los combina en un data frame.

specdata_us <- map_df(paths, ~read_csv(., col_types = "Tddi"), .id = "filename")

# eliminamos la basura del id
specdata <- specdata_us %>%
  mutate(monitor = parse_number(filename)) %>%
  select(id = ID, monitor, date = Date, sulfate, nitrate)
specdata
#> # A tibble: 772,087 x 5
#>       id monitor date                sulfate nitrate
#>    <int>   <dbl> <dttm>                <dbl>   <dbl>
#>  1     1       1 2003-01-01 00:00:00      NA      NA
#>  2     1       1 2003-01-02 00:00:00      NA      NA
#>  3     1       1 2003-01-03 00:00:00      NA      NA
#>  4     1       1 2003-01-04 00:00:00      NA      NA
#>  5     1       1 2003-01-05 00:00:00      NA      NA
#>  6     1       1 2003-01-06 00:00:00      NA      NA
#>  7     1       1 2003-01-07 00:00:00      NA      NA
#>  8     1       1 2003-01-08 00:00:00      NA      NA
#>  9     1       1 2003-01-09 00:00:00      NA      NA
#> 10     1       1 2003-01-10 00:00:00      NA      NA
#> # ... with 772,077 more rows
…
