Estadística Computacional
…
Estratificación. Los estratos se construyen en base a estado, ámbito (urbano,
complemento urbano, rural), características sociodemográficas de los habitantes
de las viviendas, características físicas y equipamiento. El proceso de
estratificación resulta en 888 subestratos en todo el ámbito nacional.

La selección de la muestra es independiente para cada estrato, y una
vez que se obtiene la muestra se calculan los factores de expansión que
reflejan las distintas probabilidades de selección. Después se llevan a cabo
ajustes por no respuesta y por proyección (calibración), esta última
busca que distintos dominios de la muestra coincidan con la proyección de
población de INEGI.

concentrado_hogar <- read_csv("data/concentradohogar.csv")
concentrado_hogar
#> # A tibble: 19,479 x 132
#>    folioviv foliohog ubica_geo ageb  tam_loc est_socio est_dis upm  
#>    <chr>       <int> <chr>     <chr>   <int>     <int> <chr>   <chr>
#>  1 0100008…        1 010010001 028-6       1         4 005     00670
#>  2 0100008…        1 010010001 028-6       1         4 005     00670
#>  3 0100008…        1 010010001 028-6       1         4 005     00670
#>  4 0100008…        1 010010001 028-6       1         4 005     00670
#>  5 0100010…        1 010010001 028-6       1         4 005     00600
#>  6 0100010…        1 010010001 028-6       1         4 005     00600
#>  7 0100010…        1 010010001 028-6       1         4 005     00600
#>  8 0100010…        1 010010001 028-6       1         4 005     00600
#>  9 0100010…        1 010010001 028-6       1         4 005     00600
#> 10 0100018…        1 010010001 029-0       1         3 004     00570
#> # ... with 19,469 more rows, and 124 more variables: factor_hog <int>,
#> #   clase_hog <int>, sexo_jefe <int>, edad_jefe <int>, educa_jefe <chr>,
#> #   tot_integ <int>, hombres <int>, mujeres <int>, mayores <int>,
#> #   menores <int>, p12_64 <int>, p65mas <int>, ocupados <int>,
#> #   percep_ing <int>, perc_ocupa <int>, ing_total <dbl>, ing_cor <dbl>,
#> #   ing_mon <dbl>, trabajo <dbl>, sueldos <dbl>, horas_extr <dbl>,
#> #   comisiones <dbl>, otra_rem <dbl>, negocio <dbl>, noagrop <dbl>,
#> #   industria <dbl>, comercio <dbl>, servicios <dbl>, agrope <dbl>,
#> #   agricolas <dbl>, pecuarios <dbl>, reproducc <int>, pesca <int>,
…
