Estadística Computacional
…
map_int() devuelve un vector entero.

map_dbl() devuelve un vector double.

map_chr() devuelve un vector caracter.

Todas las funciones reciben un vector, aplican una función a cada parte y
regresan un nuevo vector de la misma longitud que el vector entrada.

library(purrr)
names(paths) <- basename(paths)
specdata_us_vec <- map(paths, ~readr::read_csv(., col_types = "Tddi"), 
    .id = "filename")
specdata_us_vec[[10]]
#> # A tibble: 1,096 x 4
#>    Date                sulfate nitrate    ID
#>    <dttm>                <dbl>   <dbl> <int>
#>  1 2002-01-01 00:00:00      NA      NA    10
#>  2 2002-01-02 00:00:00      NA      NA    10
#>  3 2002-01-03 00:00:00      NA      NA    10
#>  4 2002-01-04 00:00:00      NA      NA    10
#>  5 2002-01-05 00:00:00      NA      NA    10
#>  6 2002-01-06 00:00:00      NA      NA    10
#>  7 2002-01-07 00:00:00      NA      NA    10
#>  8 2002-01-08 00:00:00      NA      NA    10
#>  9 2002-01-09 00:00:00      NA      NA    10
#> 10 2002-01-10 00:00:00      NA      NA    10
#> # ... with 1,086 more rows
…
