Estadística Computacional
…
flights

## # A tibble: 227,496 x 14
##    date                 hour minute   dep   arr dep_delay arr_delay carrier
##    <dttm>              <int>  <int> <int> <int>     <int>     <int> <chr>  
##  1 2011-01-01 12:00:00    14      0  1400  1500         0       -10 AA     
##  2 2011-01-02 12:00:00    14      1  1401  1501         1        -9 AA     
##  3 2011-01-03 12:00:00    13     52  1352  1502        -8        -8 AA     
##  4 2011-01-04 12:00:00    14      3  1403  1513         3         3 AA     
##  5 2011-01-05 12:00:00    14      5  1405  1507         5        -3 AA     
##  6 2011-01-06 12:00:00    13     59  1359  1503        -1        -7 AA     
##  7 2011-01-07 12:00:00    13     59  1359  1509        -1        -1 AA     
##  8 2011-01-08 12:00:00    13     55  1355  1454        -5       -16 AA     
##  9 2011-01-09 12:00:00    14     43  1443  1554        43        44 AA     
## 10 2011-01-10 12:00:00    14     43  1443  1553        43        43 AA     
## # ... with 227,486 more rows, and 6 more variables: flight <int>,
## #   dest <chr>, plane <chr>, cancelled <int>, time <int>, dist <int>
…
weather 

## # A tibble: 8,723 x 14
##    date        hour  temp dew_point humidity pressure visibility wind_dir
##    <date>     <int> <dbl>     <dbl>    <int>    <dbl>      <dbl> <chr>   
##  1 2011-01-01     0  59        28.9       32     29.9         10 NNE     
##  2 2011-01-01     1  57.2      28.4       33     29.9         10 NNE     
##  3 2011-01-01     2  55.4      28.4       36     29.9         10 NNW     
##  4 2011-01-01     3  53.6      28.4       38     29.9         10 North   
##  5 2011-01-01     4  NA        NA         NA     30.0         10 NNW     
##  6 2011-01-01     5  NA        NA         NA     30.0         10 North   
##  7 2011-01-01     6  53.1      17.1       24     30.0         10 North   
##  8 2011-01-01     7  53.1      16         23     30.1         10 North   
##  9 2011-01-01     8  54        18         24     30.1         10 North   
## 10 2011-01-01     9  55.4      17.6       23     30.1         10 NNE     
## # ... with 8,713 more rows, and 6 more variables: wind_dir2 <int>,
## #   wind_speed <dbl>, gust_speed <dbl>, precip <dbl>, conditions <chr>,
## #   events <chr>
…
planes

## # A tibble: 2,853 x 9
##    plane   year mfr       model   no.eng no.seats speed engine  type      
##    <chr>  <int> <chr>     <chr>    <int>    <int> <int> <chr>   <chr>     
##  1 N576AA  1991 MCDONNEL… DC-9-8…      2      172    NA Turbo-… Fixed win…
##  2 N557AA  1993 MARZ BAR… KITFOX…      1        2    NA Recipr… Fixed win…
##  3 N403AA  1974 RAVEN     S55A        NA        1    60 None    Balloon   
##  4 N492AA  1989 MCDONNEL… DC-9-8…      2      172    NA Turbo-… Fixed win…
##  5 N262AA  1985 MCDONNEL… DC-9-8…      2      172    NA Turbo-… Fixed win…
##  6 N493AA  1989 MCDONNEL… DC-9-8…      2      172    NA Turbo-… Fixed win…
##  7 N477AA  1988 MCDONNEL… DC-9-8…      2      172    NA Turbo-… Fixed win…
##  8 N476AA  1988 MCDONNEL… DC-9-8…      2      172    NA Turbo-… Fixed win…
##  9 N504AA    NA AUTHIER … TIERRA…      1        2    NA Recipr… Fixed win…
## 10 N565AA  1987 MCDONNEL… DC-9-8…      2      172    NA Turbo-… Fixed win…
## # ... with 2,843 more rows
…
## Parsed with column specification:
## cols(
##   iata = col_character(),
##   airport = col_character(),
##   city = col_character(),
##   state = col_character(),
##   country = col_character(),
##   lat = col_double(),
##   long = col_double()
## )

airports

## # A tibble: 3,376 x 7
##    iata  airport              city             state country   lat   long
##    <chr> <chr>                <chr>            <chr> <chr>   <dbl>  <dbl>
##  1 00M   Thigpen              Bay Springs      MS    USA      32.0  -89.2
##  2 00R   Livingston Municipal Livingston       TX    USA      30.7  -95.0
##  3 00V   Meadow Lake          Colorado Springs CO    USA      38.9 -105. 
##  4 01G   Perry-Warsaw         Perry            NY    USA      42.7  -78.1
##  5 01J   Hilliard Airpark     Hilliard         FL    USA      30.7  -81.9
##  6 01M   Tishomingo County    Belmont          MS    USA      34.5  -88.2
##  7 02A   Gragg-Wade           Clanton          AL    USA      32.9  -86.6
##  8 02C   Capitol              Brookfield       WI    USA      43.1  -88.2
##  9 02G   Columbiana County    East Liverpool   OH    USA      40.7  -80.6
## 10 03D   Memphis Memorial     Memphis          MO    USA      40.4  -92.2
## # ... with 3,366 more rows
…
Veamos un ejemplo:

planes <- flights %>%
  filter(!is.na(arr_delay)) %>%
  group_by(plane) %>%
  filter(n() > 30)

planes %>%
  mutate(z_delay =
    (arr_delay - mean(arr_delay)) / sd(arr_delay)) %>%
  filter(z_delay > 5)

## # A tibble: 1,403 x 16
## # Groups:   plane [856]
##    date                 hour minute   dep   arr dep_delay arr_delay carrier
##    <dttm>              <int>  <int> <int> <int>     <int>     <int> <chr>  
##  1 2011-01-28 12:00:00    15     16  1516  1916       351       326 CO     
##  2 2011-01-27 12:00:00    18     22  1822  1945       234       210 CO     
##  3 2011-01-27 12:00:00    21     37  2137  2254       242       219 CO     
##  4 2011-01-27 12:00:00     0     11    11   216       168       137 CO     
##  5 2011-01-27 12:00:00    22     37  2237   153       227       208 CO     
##  6 2011-01-27 12:00:00    21     28  2128   136       231       216 CO     
##  7 2011-01-26 12:00:00    11     46  1146  1633       171       193 CO     
##  8 2011-01-26 12:00:00     9     49   949  1436       144       180 CO     
##  9 2011-01-21 12:00:00    19     11  1911  2352        94       112 CO     
## 10 2011-01-20 12:00:00     6     35   635   807       780       775 CO     
## # ... with 1,393 more rows, and 8 more variables: flight <int>,
## #   dest <chr>, plane <chr>, cancelled <int>, time <int>, dist <int>,
## #   date_only <date>, z_delay <dbl>
…
location <- airports %>%
  select(dest = iata, name = airport, lat, long)

flights %>%
    group_by(dest) %>%
    filter(!is.na(arr_delay)) %>%
    summarise(
        arr_delay = mean(arr_delay),
        n = n() ) %>%
        arrange(desc(arr_delay)) %>%
        left_join(location)

## Joining, by = "dest"

## # A tibble: 116 x 6
##    dest  arr_delay     n name                                  lat   long
##    <chr>     <dbl> <int> <chr>                               <dbl>  <dbl>
##  1 ANC        26.1   124 Ted Stevens Anchorage International  61.2 -150. 
##  2 CID        17.8   406 Eastern Iowa                         41.9  -91.7
##  3 DSM        16.0   634 Des Moines International             41.5  -93.7
##  4 SFO        14.9  2800 San Francisco International          37.6 -122. 
##  5 BPT        14.3     3 Southeast Texas Regional             30.0  -94.0
##  6 GRR        13.7   665 Kent County International            42.9  -85.5
##  7 DAY        13.7   444 James M Cox Dayton Intl              39.9  -84.2
##  8 VPS        12.5   864 Eglin Air Force Base                 30.5  -86.5
##  9 ECP        12.4   720 <NA>                                 NA     NA  
## 10 SAV        12.3   851 Savannah International               32.1  -81.2
## # ... with 106 more rows
…
hourly_delay <- flights %>%
  group_by(date_only, hour) %>%
  filter(!is.na(dep_delay)) %>%
  summarise(
    delay = mean(dep_delay),
    n = n() ) %>%
  filter(n > 10)

delay_weather <- hourly_delay %>% left_join(weather)

## Joining, by = "hour"

arrange(delay_weather, -delay)

## # A tibble: 2,091,842 x 17
## # Groups:   date_only [365]
##    date_only   hour delay     n date        temp dew_point humidity
##    <date>     <int> <dbl> <int> <date>     <dbl>     <dbl>    <int>
##  1 2011-05-12    23  184.    33 2011-01-02  43        28.9       58
##  2 2011-05-12    23  184.    33 2011-01-03  39        27         62
##  3 2011-05-12    23  184.    33 2011-01-04  50        45         83
##  4 2011-05-12    23  184.    33 2011-01-05  62.6      60.8       94
##  5 2011-05-12    23  184.    33 2011-01-06  53.1      36         52
##  6 2011-05-12    23  184.    33 2011-01-07  46.9      36         66
##  7 2011-05-12    23  184.    33 2011-01-08  50        43         77
##  8 2011-05-12    23  184.    33 2011-01-09  53.1      30         41
##  9 2011-05-12    23  184.    33 2011-01-10  41        37         86
## 10 2011-05-12    23  184.    33 2011-01-11  39.9      32         73
## # ... with 2,091,832 more rows, and 9 more variables: pressure <dbl>,
## #   visibility <dbl>, wind_dir <chr>, wind_dir2 <int>, wind_speed <dbl>,
## #   gust_speed <dbl>, precip <dbl>, conditions <chr>, events <chr>
…
